[
  {
    "region": "Калининград",
    "address": "Ленинский проспект, 69",
    "times": {
      "date": "Пн. — Сб.",
      "date2": "Вс.",
      "time": "07:00 — 21:00",
      "time2": "10:00 — 21:00"
    },
    "coordinates": [54.712533, 20.508386]
  },
  {
    "region": "Москва",
    "address": "Авиамоторная, ш. Энтузиастов, 11 А, корп. 2",
    "times": {
      "date": "Пн. — Сб.",
      "date2": "Вс.",
      "time": "07:00 — 21:00",
      "time2": "10:00 — 21:00"
    },
    "coordinates": [55.752136, 37.713297]
  },
  {
    "region": "Москва",
    "address": "Римская, м. Площадь Ильича, ул. Сергия Радонежского, д. 8",
    "times": {
      "date": "Пн. — Сб.",
      "date2": "Вс.",
      "time": "07:00 — 21:00",
      "time2": "10:00 — 21:00"
    },
    "coordinates": [55.746487, 37.675136]
  },
  {
    "region": "Москва",
    "address": "Третьяковская, м. Новокузнецкая, ул. Пятницкая, д. 28",
    "times": {
      "date": "Пн. — Сб.",
      "date2": "Вс.",
      "time": "07:00 — 21:00",
      "time2": "10:00 — 21:00"
    },
    "coordinates": [55.740406, 37.627445]
  },
  {
    "region": "Москва",
    "address": "Спортивная, м. Фрунзенская, ул. Хамовнический вал, д. 14",
    "times": {
      "date": "Пн. — Сб.",
      "date2": "Вс.",
      "time": "07:00 — 21:00",
      "time2": "10:00 — 21:00"
    },
    "coordinates": [55.718020, 37.573753]
  },
  {
    "region": "Москва",
    "address": "Старая Басманная улица, 20к1",
    "times": {
      "date": "Пн. — Сб.",
      "date2": "Вс.",
      "time": "07:00 — 21:00",
      "time2": "10:00 — 21:00"
    },
    "coordinates": [55.766866, 37.665183]
  },
  {
    "region": "Москва",
    "address": "Земляной Вал, 9",
    "times": {
      "date": "Пн. — Сб.",
      "date2": "Вс.",
      "time": "07:00 — 21:00",
      "time2": "10:00 — 21:00"
    },
    "coordinates": [55.761685, 37.658527]
  },
  {
    "region": "Москва",
    "address": "улица Воронцово Поле, 14",
    "times": {
      "date": "Пн. — Сб.",
      "date2": "Вс.",
      "time": "07:00 — 21:00",
      "time2": "10:00 — 21:00"
    },
    "coordinates": [55.753043, 37.653927]
  },
  {
    "region": "Москва",
    "address": "Солянский тупик, 1",
    "times": {
      "date": "Пн. — Сб.",
      "date2": "Вс.",
      "time": "07:00 — 21:00",
      "time2": "10:00 — 21:00"
    },
    "coordinates": [55.753823, 37.636060]
  },
  {
    "region": "Москва",
    "address": "Пушечная улица, 7/5с2",
    "times": {
      "date": "Пн. — Сб.",
      "date2": "Вс.",
      "time": "07:00 — 21:00",
      "time2": "10:00 — 21:00"
    },
    "coordinates": [55.760905, 37.622872]
  },
  {
    "region": "Москва",
    "address": "Леонтьевский переулок, 2Ас1",
    "times": {
      "date": "Пн. — Сб.",
      "date2": "Вс.",
      "time": "07:00 — 21:00",
      "time2": "10:00 — 21:00"
    },
    "coordinates": [55.758286, 37.601493]
  }
]
